Name               Stmts   Miss Branch BrPart  Cover   Missing
--------------------------------------------------------------
Diplomacy.py          96      0     42      0   100%
TestDiplomacy.py      66      0      2      1    99%   117->exit
--------------------------------------------------------------
TOTAL                162      0     44      1    99%
